{
  "type": "FeatureCollection",
  "title": "Leerstandsmelder full index",
  "features": [
    {
      "type": "Feature",
      "geometry": {
        "type": "Point",
        "coordinates": [9.991279518860267, 53.553035300000005]
      },
      "properties": {
        "id": "f340ec9b-9f41-4fe9-9522-8e88a73f00a7",
        "created_at": "2024-03-29T22:12:32.210Z",
        "updated_at": "2024-04-01T13:02:57.191Z",
        "since": "2024-03-29T22:12:32.210Z",
        "title": "Alsterhaus",
        "slug": "alsterhaus",
        "published": true,
        "buildingType": "",
        "building_type": [],
        "owner": "",
        "region": "Hamburg",
        "region_slug": "hamburg"
      }
    },
    {
      "type": "Feature",
      "geometry": {
        "type": "Point",
        "coordinates": [4.87175, 52.390896]
      },
      "properties": {
        "id": "60addfbb-0c3b-4b5b-add9-1dc0fd752d20",
        "created_at": "2024-03-23T20:10:12.716Z",
        "updated_at": "2024-03-23T20:10:12.842Z",
        "since": "2024-03-23T20:10:12.716Z",
        "title": "Zaanstraat 286",
        "slug": "zaanstraat-286",
        "published": true,
        "buildingType": "",
        "building_type": [],
        "owner": "",
        "region": "Amsterdam",
        "region_slug": "amsterdam"
      }
    },
    {
      "type": "Feature",
      "geometry": {
        "type": "Point",
        "coordinates": [13.3565092, 52.5068969]
      },
      "properties": {
        "id": "a8cf50d6-ac22-4802-a2cc-83ded78d8d78",
        "created_at": "2024-03-17T22:44:23.186Z",
        "updated_at": "2024-03-17T22:44:23.377Z",
        "since": "2024-03-17T22:44:23.186Z",
        "title": "Herkulesufer",
        "slug": "",
        "published": true,
        "buildingType": "",
        "building_type": [],
        "owner": "",
        "region": "Berlin",
        "region_slug": "berlin"
      }
    },
    {
      "type": "Feature",
      "geometry": {
        "type": "Point",
        "coordinates": [13.375657, 52.506035]
      },
      "properties": {
        "id": "2a948d1a-92ee-4baf-9e9d-37259b0d0bd3",
        "created_at": "2024-03-17T22:37:31.162Z",
        "updated_at": "2024-03-17T22:37:31.272Z",
        "since": "2024-03-17T22:37:31.162Z",
        "title": "Gabriele-Tergit-Promenade 15",
        "slug": "",
        "published": true,
        "buildingType": "",
        "building_type": [],
        "owner": "",
        "region": "Berlin",
        "region_slug": "berlin"
      }
    },
    {
      "type": "Feature",
      "geometry": {
        "type": "Point",
        "coordinates": [13.361248366138502, 52.5074567]
      },
      "properties": {
        "id": "70812cdf-2b9d-473a-85be-29ad39ee72e1",
        "created_at": "2024-03-17T22:34:52.288Z",
        "updated_at": "2024-03-17T22:34:52.417Z",
        "since": "2024-03-17T22:34:52.288Z",
        "title": "Bundesministerium der Verteidigung",
        "slug": "",
        "published": true,
        "buildingType": "",
        "building_type": [],
        "owner": "",
        "region": "Berlin",
        "region_slug": "berlin"
      }
    },
    {
      "type": "Feature",
      "geometry": {
        "type": "Point",
        "coordinates": [13.405366, 52.511096]
      },
      "properties": {
        "id": "777babaa-52f2-4e16-9326-028534735b82",
        "created_at": "2024-03-17T22:19:29.013Z",
        "updated_at": "2024-03-17T22:19:29.264Z",
        "since": "2024-03-17T22:19:29.013Z",
        "title": "Wallstraße 14",
        "slug": "",
        "published": true,
        "buildingType": "",
        "building_type": [],
        "owner": "",
        "region": "Berlin",
        "region_slug": "berlin"
      }
    },
    {
      "type": "Feature",
      "geometry": {
        "type": "Point",
        "coordinates": [10.902231176761484, 48.3659339]
      },
      "properties": {
        "id": "3b70e171-c5df-4d3c-81b1-8a482a8e5b2c",
        "created_at": "2024-03-15T02:34:35.450Z",
        "updated_at": "2024-03-15T02:34:35.501Z",
        "since": "2024-03-15T02:34:35.450Z",
        "title": "Mädchenrealschule St. Ursula",
        "slug": "",
        "published": true,
        "buildingType": "",
        "building_type": [],
        "owner": "",
        "region": "Augsburg",
        "region_slug": "augsburg"
      }
    },
    {
      "type": "Feature",
      "geometry": {
        "type": "Point",
        "coordinates": [10.897589775991818, 48.366629149999994]
      },
      "properties": {
        "id": "ebf15e16-be49-402c-9b3c-5d75e593c2d8",
        "created_at": "2024-03-15T02:30:18.868Z",
        "updated_at": "2024-03-15T02:30:54.243Z",
        "since": "2024-03-15T02:30:18.868Z",
        "title": "Moritzplatz 5",
        "slug": "",
        "published": true,
        "buildingType": "",
        "building_type": [],
        "owner": "",
        "region": "Augsburg",
        "region_slug": "augsburg"
      }
    },
    {
      "type": "Feature",
      "geometry": {
        "type": "Point",
        "coordinates": [10.901220469564173, 48.366670549999995]
      },
      "properties": {
        "id": "fa0b6b69-a341-4c4d-96db-feb9e0fda891",
        "created_at": "2024-03-15T02:28:20.112Z",
        "updated_at": "2024-03-15T02:28:20.261Z",
        "since": "2024-03-15T02:28:20.112Z",
        "title": "Vorderer Lech 22",
        "slug": "",
        "published": true,
        "buildingType": "",
        "building_type": [],
        "owner": "",
        "region": "Augsburg",
        "region_slug": "augsburg"
      }
    },
    {
      "type": "Feature",
      "geometry": {
        "type": "Point",
        "coordinates": [9.944028, 53.528271]
      },
      "properties": {
        "id": "a238c0c2-214c-4a6f-93d2-bfc606484b18",
        "created_at": "2024-03-10T18:58:37.856Z",
        "updated_at": "2024-03-11T19:13:47.892Z",
        "since": "2024-03-10T18:58:37.856Z",
        "title": "Tollerortweg 15",
        "slug": "",
        "published": true,
        "buildingType": "",
        "building_type": [],
        "owner": "",
        "region": "Hamburg",
        "region_slug": "hamburg"
      }
    }
  ]
}
